"2021-05-21T19:32:51Z","Fonticulua Campestris",1
"2021-07-15T19:00:26Z","Fonticulua Campestris",1
"2021-07-16T18:28:36Z","Bacterium Vesicula",1
"2021-07-17T13:17:41Z","Bacterium Acies",1
"2021-07-17T14:14:15Z","Aleoida Arcus",1
"2021-07-17T14:22:04Z","Tussock Albata",1
"2021-07-17T14:46:27Z","Bacterium Aurasus",1
"2021-07-17T15:20:12Z","Bacterium Tela",1
"2021-07-17T17:11:25Z","Fonticulua Campestris",1
"2021-07-18T11:13:49Z","Bacterium Aurasus",1
"2021-07-18T14:15:07Z","Tussock Cultro",1
"2021-07-18T14:33:29Z","Frutexa Metallicum",1
"2021-07-18T17:17:00Z","Stratum Paleas",1
"2021-07-19T18:18:03Z","Tussock Capillum",1
"2021-07-21T17:41:05Z","Fonticulua Campestris",1
"2021-07-21T18:14:16Z","Stratum Tectonicas",1
"2021-07-21T18:19:33Z","Tussock Albata",1
"2021-07-22T19:23:04Z","Frutexa Metallicum",1
"2021-07-24T16:10:29Z","Roseum Brain Tree",1
"2021-07-25T16:08:59Z","Bacterium Cerbrus",1
"2021-07-25T16:28:01Z","Frutexa Flabellum",1
"2021-07-25T16:35:53Z","Fungoida Setisis",1
"2021-07-25T16:45:43Z","Aleoida Laminiae",1
"2021-07-25T17:03:02Z","Tussock Ventusa",1
"2021-07-26T11:21:35Z","Electricae Radialem",1
"2021-07-28T16:03:05Z","Fonticulua Campestris",1
"2021-07-28T16:10:51Z","Electricae Radialem",1
"2021-07-28T16:39:17Z","Fonticulua Campestris",1
"2021-07-28T16:58:16Z","Fonticulua Campestris",1
"2021-07-28T17:08:56Z","Electricae Radialem",1
"2021-07-28T18:07:49Z","Osseus Fractus",1
"2021-07-28T18:17:45Z","Stratum Paleas",1
"2021-07-28T19:00:24Z","Recepta Conditivus",1
"2021-07-29T16:16:12Z","Bacterium Cerbrus",1
"2021-07-29T16:39:20Z","Tussock Ventusa",1
"2021-07-29T18:23:10Z","Bacterium Aurasus",1
"2021-07-29T18:27:19Z","Tussock Albata",1
"2021-07-29T18:33:15Z","Stratum Tectonicas",1
"2021-08-21T10:30:11Z","Electricae Radialem",1
"2021-08-21T10:36:12Z","Fonticulua Campestris",1
"2021-08-21T11:27:59Z","Osseus Spiralis",1
"2021-08-21T17:05:39Z","Tubus Rosarium",1
"2021-08-21T17:09:03Z","Tussock Divisa",1
"2021-08-21T18:20:56Z","Osseus Pumice",1
"2021-08-22T13:28:41Z","Bacterium Aurasus",1
"2021-08-22T13:57:00Z","Fonticulua Campestris",1
"2021-08-22T14:37:22Z","Cactoida Pullulanta",1
"2021-08-22T15:50:38Z","Cactoida Pullulanta",1
"2021-08-22T16:06:08Z","Tussock Caputus",1
"2021-08-22T16:11:46Z","Fungoida Gelata",1
"2021-08-22T16:29:50Z","Tussock Divisa",1
"2021-08-22T16:44:04Z","Bacterium Alcyoneum",1
"2021-08-22T17:45:36Z","Tubus Conifer",1
"2021-08-27T13:52:56Z","Tubus Conifer",1
"2021-08-27T13:56:18Z","Tussock Serrati",1
"2021-08-27T14:00:45Z","Stratum Paleas",1
"2021-08-27T14:31:32Z","Aleoida Coronamus",1
"2021-08-27T14:44:38Z","Cactoida Pullulanta",1
"2021-08-27T14:51:44Z","Tubus Conifer",1
"2021-08-27T14:56:05Z","Stratum Paleas",1
"2021-08-27T15:32:41Z","Tubus Conifer",1
"2021-08-27T15:41:57Z","Tussock Ignis",1
"2021-08-27T16:40:28Z","Tussock Divisa",1
"2021-08-30T13:03:31Z","Bacterium Cerbrus",1
"2021-08-30T14:31:45Z","Tubus Conifer",1
"2021-08-30T14:35:39Z","Tussock Ignis",1
"2021-08-31T18:46:13Z","Cactoida Vermis",1
"2021-08-31T19:04:34Z","Concha Renibus",1
"2021-09-02T14:35:32Z","Fonticulua Campestris",1
"2021-09-03T15:47:50Z","Osseus Cornibus",1
"2021-09-03T15:53:41Z","Aleoida Gravis",1
"2021-09-03T16:45:32Z","Osseus Pumice",1
"2021-09-03T17:10:21Z","Clypeus Lacrimam",1
"2021-09-03T17:18:50Z","Tussock Virgam",1
"2021-09-03T17:22:10Z","Cactoida Vermis",1
"2021-09-06T15:24:51Z","Tussock Divisa",1
"2021-09-06T15:42:55Z","Osseus Spiralis",1
"2021-09-06T16:35:46Z","Bacterium Aurasus",1
"2021-09-06T17:36:16Z","Aleoida Spica",1
"2021-09-06T17:40:54Z","Stratum Paleas",1
"2021-09-06T17:44:13Z","Tussock Divisa",1
"2021-09-06T18:08:50Z","Cactoida Pullulanta",1
"2021-09-06T18:11:31Z","Aleoida Coronamus",1
"2021-09-06T18:41:09Z","Tussock Divisa",1
"2021-09-06T18:44:45Z","Stratum Tectonicas",1
"2021-09-06T21:58:18Z","Tubus Conifer",1
"2021-09-06T22:06:16Z","Tussock Ignis",1
"2021-09-06T22:09:00Z","Stratum Paleas",1
"2021-09-07T14:44:36Z","Osseus Pumice",1
"2021-09-07T15:31:26Z","Tussock Divisa",1
"2021-09-07T16:06:23Z","Tussock Divisa",1
"2021-09-07T16:51:57Z","Tussock Capillum",1
"2021-09-07T17:20:07Z","Clypeus Lacrimam",1
"2021-09-07T17:24:05Z","Aleoida Gravis",1
"2021-09-07T17:27:35Z","Stratum Paleas",1
"2021-09-07T18:13:19Z","Tussock Ignis",1
"2021-09-08T15:45:51Z","Osseus Spiralis",1
"2021-09-08T15:49:10Z","Aleoida Spica",1
"2021-09-08T15:51:38Z","Tussock Divisa",1
"2021-09-08T16:20:21Z","Bacterium Aurasus",1
"2021-09-08T16:39:22Z","Tussock Albata",1
"2021-09-08T17:12:54Z","Tussock Virgam",1
"2021-09-08T17:20:08Z","Clypeus Lacrimam",1
"2021-09-08T17:24:40Z","Cactoida Vermis",1
"2021-09-08T17:38:01Z","Bacterium Cerbrus",1
"2021-09-08T18:16:43Z","Cactoida Pullulanta",1
"2021-09-08T18:19:55Z","Stratum Paleas",1
"2021-09-09T15:46:27Z","Osseus Pumice",1
"2021-09-09T16:24:09Z","Aleoida Spica",1
"2021-09-09T16:38:35Z","Osseus Spiralis",1
"2021-09-09T16:57:49Z","Tubus Rosarium",1
"2021-09-09T17:19:36Z","Bacterium Vesicula",1
"2021-09-09T18:03:31Z","Bacterium Aurasus",1
"2021-09-09T18:31:22Z","Tubus Conifer",1
"2021-09-11T10:59:52Z","Tubus Sororibus",1
"2021-09-11T12:01:19Z","Aleoida Spica",1
"2021-09-11T12:57:37Z","Tussock Divisa",1
"2021-09-13T14:55:36Z","Frutexa Sponsae",1
"2021-09-13T15:00:37Z","Clypeus Speculumi",1
"2021-09-13T15:46:18Z","Tussock Caputus",1
"2021-09-13T15:49:54Z","Cactoida Pullulanta",1
"2021-09-13T15:52:54Z","Frutexa Metallicum",1
"2021-09-13T17:07:47Z","Frutexa Flabellum",1
"2021-09-13T18:08:50Z","Fumerola Aquatis",1
"2021-09-14T13:17:52Z","Concha Labiata",1
"2021-09-14T14:15:23Z","Tubus Sororibus",1
"2021-09-14T15:30:21Z","Fungoida Gelata",1
"2021-09-14T16:43:21Z","Cactoida Pullulanta",1
"2021-09-14T17:22:43Z","Osseus Spiralis",1
"2021-09-14T17:25:20Z","Tussock Divisa",1
"2021-09-14T17:27:59Z","Stratum Paleas",1
"2021-09-14T18:16:20Z","Frutexa Metallicum",1
"2021-09-14T18:24:16Z","Aleoida Spica",1
"2021-09-15T12:32:42Z","Fungoida Setisis",1
"2021-09-15T13:30:31Z","Fonticulua Campestris",1
"2021-09-15T14:11:06Z","Tussock Ignis",1
"2021-09-15T14:14:18Z","Stratum Paleas",1
"2021-09-15T14:22:02Z","Bacterium Aurasus",1
"2021-09-15T16:04:24Z","Clypeus Margaritus",1
"2021-09-15T16:09:04Z","Concha Renibus",1
"2021-09-15T16:21:10Z","Cactoida Vermis",1
"2021-09-16T15:12:22Z","Tubus Conifer",1
"2021-09-16T15:16:11Z","Stratum Paleas",1
"2021-09-16T15:20:01Z","Tussock Ignis",1
"2021-09-16T15:58:21Z","Concha Aureolas",1
"2021-09-16T17:11:59Z","Fungoida Setisis",1
"2021-09-16T19:16:40Z","Stratum Tectonicas",1
"2021-09-16T19:31:08Z","Osseus Cornibus",1
"2021-09-16T20:26:38Z","Tussock Divisa",1
"2021-09-16T20:50:34Z","Bacterium Alcyoneum",1
"2021-09-20T16:46:48Z","Fungoida Setisis",1
"2021-09-20T16:57:50Z","Frutexa Metallicum",1
"2021-09-20T17:45:46Z","Tussock Divisa",1
"2021-09-20T17:50:43Z","Bacterium Alcyoneum",1
"2021-09-21T17:51:39Z","Tubus Conifer",1
"2021-09-21T17:54:00Z","Tussock Ignis",1
"2021-09-21T17:56:15Z","Stratum Paleas",1
"2021-09-21T20:50:38Z","Aleoida Arcus",1
"2021-09-21T22:08:41Z","Tubus Sororibus",1
"2021-09-21T22:13:59Z","Frutexa Metallicum",1
"2021-09-22T12:24:40Z","Recepta Umbrux",1
"2021-09-22T12:30:46Z","Tubus Conifer",1
"2021-09-22T12:34:06Z","Stratum Paleas",1
"2021-09-22T12:36:32Z","Tussock Albata",1
"2021-09-22T15:16:42Z","Tubus Conifer",1
"2021-09-22T15:20:47Z","Tussock Ignis",1
"2021-09-22T15:24:06Z","Stratum Paleas",1
"2021-09-22T16:11:14Z","Aleoida Spica",1
"2021-09-23T12:27:55Z","Tussock Divisa",1
"2021-09-23T12:46:38Z","Bacterium Vesicula",1
"2021-09-23T16:35:38Z","Stratum Tectonicas",1
"2021-09-23T17:27:09Z","Tussock Caputus",1
"2021-09-23T17:38:07Z","Concha Renibus",1
"2021-09-23T18:17:21Z","Frutexa Metallicum",1
"2021-09-23T18:38:00Z","Frutexa Flabellum",1
"2021-09-24T15:37:14Z","Frutexa Metallicum",1
"2021-09-24T16:33:01Z","Concha Labiata",1
"2021-09-25T10:46:10Z","Fungoida Setisis",1
"2021-09-25T11:24:11Z","Concha Aureolas",1
"2021-09-25T11:32:08Z","Osseus Spiralis",1
"2021-09-25T12:22:01Z","Fonticulua Campestris",1
"2021-09-25T13:14:02Z","Osseus Pumice",1
"2021-09-25T13:35:51Z","Tussock Divisa",1
"2021-09-25T13:41:02Z","Osseus Spiralis",1
"2021-09-25T19:48:10Z","Tubus Conifer",1
"2021-09-25T19:51:29Z","Tussock Ignis",1
"2021-09-25T20:40:25Z","Stratum Paleas",1
"2021-09-25T20:43:57Z","Tussock Divisa",1
"2021-09-25T21:59:55Z","Tubus Conifer",1
"2021-09-25T22:05:33Z","Osseus Cornibus",1
"2021-09-25T23:00:42Z","Osseus Pumice",1
"2021-09-27T16:36:52Z","Osseus Pumice",1
"2021-09-27T17:24:42Z","Concha Labiata",1
"2021-09-28T14:52:02Z","Tubus Conifer",1
"2021-09-28T14:56:52Z","Tussock Ignis",1
"2021-09-28T15:41:01Z","Osseus Pumice",1
"2021-09-28T17:54:44Z","Tussock Divisa",1
"2021-09-29T14:42:25Z","Aleoida Spica",1
"2021-09-29T14:45:16Z","Frutexa Metallicum",1
"2021-09-30T17:39:08Z","Bacterium Aurasus",1
"2021-09-30T17:44:54Z","Osseus Cornibus",1
"2021-09-30T18:43:51Z","Bacterium Aurasus",1
"2021-10-01T15:54:21Z","Concha Labiata",1
"2021-10-01T16:51:00Z","Frutexa Flabellum",1
"2021-10-02T11:10:15Z","Tussock Caputus",1
"2021-10-02T11:56:12Z","Tubus Conifer",1
"2021-10-02T11:59:07Z","Tussock Ignis",1
"2021-10-02T12:59:48Z","Electricae Pluma",1
"2021-10-02T18:28:44Z","Tubus Conifer",1
"2021-10-02T18:32:24Z","Tussock Ignis",1
"2021-10-03T14:48:14Z","Cactoida Pullulanta",1
"2021-10-03T14:52:45Z","Stratum Paleas",1
"2021-10-03T15:13:34Z","Tussock Divisa",1
"2021-10-04T14:41:26Z","Concha Aureolas",1
"2021-10-04T14:58:17Z","Tussock Divisa",1
"2021-10-04T15:28:01Z","Tussock Divisa",1
"2021-10-04T15:31:43Z","Bacterium Alcyoneum",1
"2021-10-04T16:11:03Z","Stratum Paleas",1
"2021-10-04T16:14:13Z","Tussock Serrati",1
"2021-10-04T17:11:09Z","Tussock Divisa",1
"2021-10-05T16:47:45Z","Tussock Divisa",1
"2021-10-05T16:49:52Z","Aleoida Spica",1
"2021-10-05T16:53:07Z","Stratum Tectonicas",1
"2021-10-05T17:22:44Z","Concha Labiata",1
"2021-10-06T14:20:35Z","Stratum Tectonicas",1
"2021-10-06T14:27:16Z","Osseus Cornibus",1
"2021-10-06T14:30:50Z","Bacterium Aurasus",1
"2021-10-06T15:34:12Z","Tussock Ignis",1
"2021-10-06T15:37:10Z","Stratum Tectonicas",1
"2021-10-06T16:48:36Z","Clypeus Margaritus",1
"2021-10-06T16:50:50Z","Frutexa Flabellum",1
"2021-10-06T17:25:06Z","Tussock Capillum",1
"2021-10-07T14:09:23Z","Tussock Cultro",1
"2021-10-07T14:11:35Z","Aleoida Laminiae",1
"2021-10-07T14:16:31Z","Stratum Laminamus",1
"2021-10-07T14:51:36Z","Concha Aureolas",1
"2021-10-07T14:54:58Z","Frutexa Flabellum",1
"2021-10-07T15:40:33Z","Tussock Cultro",1
"2021-10-07T16:32:01Z","Frutexa Acus",1
"2021-10-07T21:33:38Z","Concha Labiata",1
"2021-10-07T21:37:20Z","Frutexa Acus",1
"2021-10-07T21:58:32Z","Tubus Rosarium",1
"2021-10-07T22:01:23Z","Tussock Cultro",1
"2021-10-07T22:03:53Z","Aleoida Laminiae",1
"2021-10-07T22:06:49Z","Stratum Laminamus",1
"2021-10-07T22:41:33Z","Aleoida Laminiae",1
"2021-10-07T22:45:22Z","Stratum Laminamus",1
"2021-10-07T22:48:28Z","Tussock Cultro",1
"2021-10-08T14:32:25Z","Tussock Ventusa",1
"2021-10-08T14:48:10Z","Tubus Rosarium",1
"2021-10-08T14:53:19Z","Tussock Cultro",1
"2021-10-08T14:59:57Z","Osseus Spiralis",1
"2021-10-08T15:02:53Z","Stratum Paleas",1
"2021-10-08T15:47:16Z","Tussock Ignis",1
"2021-10-08T16:57:31Z","Fumerola Extremus",1
"2021-10-08T17:03:42Z","Tubus Rosarium",1
"2021-10-08T17:06:05Z","Aleoida Laminiae",1
"2021-10-08T17:10:19Z","Stratum Laminamus",1
"2021-10-08T17:13:05Z","Tussock Cultro",1
"2021-10-09T16:16:23Z","Osseus Spiralis",1
"2021-10-09T16:19:56Z","Tussock Cultro",1
"2021-10-09T16:42:24Z","Osseus Spiralis",1
"2021-10-09T16:46:27Z","Tussock Cultro",1
"2021-10-10T15:05:44Z","Tussock Albata",1
"2021-10-10T15:14:47Z","Stratum Excutitus",1
"2021-10-10T15:53:56Z","Tussock Cultro",1
"2021-10-10T15:56:29Z","Stratum Tectonicas",1
"2021-10-10T16:20:49Z","Concha Labiata",1
"2021-10-10T16:27:39Z","Frutexa Acus",1
"2021-10-10T16:58:14Z","Tussock Caputus",1
"2021-10-10T17:01:05Z","Frutexa Metallicum",1
"2021-10-10T17:37:15Z","Tussock Cultro",1
"2021-10-10T17:43:27Z","Osseus Spiralis",1
"2021-10-11T14:49:32Z","Tussock Ventusa",1
"2021-10-11T17:18:40Z","Frutexa Flabellum",1
"2021-10-12T12:12:46Z","Tussock Cultro",1
"2021-10-12T13:28:54Z","Tussock Albata",1
"2021-10-12T13:32:02Z","Stratum Excutitus",1
"2021-10-12T14:43:02Z","Tussock Ignis",1
"2021-10-12T14:52:20Z","Bacterium Aurasus",1
"2021-10-12T16:26:02Z","Frutexa Acus",1
"2021-10-12T16:53:01Z","Cactoida Cortexum",1
"2021-10-13T16:21:54Z","Tussock Ignis",1
"2021-10-13T16:25:31Z","Stratum Tectonicas",1
"2021-10-13T17:46:19Z","Tussock Ignis",1
"2021-10-13T17:55:25Z","Tubus Compagibus",1
"2021-10-14T12:28:09Z","Tussock Cultro",1
"2021-10-14T12:36:24Z","Osseus Spiralis",1
"2021-10-14T12:59:08Z","Cactoida Lapis",1
"2021-10-14T13:01:42Z","Frutexa Metallicum",1
"2021-10-14T14:09:47Z","Tussock Virgam",1
"2021-10-14T14:17:15Z","Stratum Tectonicas",1
"2021-10-14T16:18:16Z","Tussock Serrati",1
"2021-10-14T16:54:54Z","Tubus Compagibus",1
"2021-10-14T17:42:03Z","Tussock Ignis",1
"2021-10-14T17:46:24Z","Tubus Compagibus",1
"2021-10-15T14:09:05Z","Tubus Rosarium",1
"2021-10-15T14:13:06Z","Stratum Laminamus",1
"2021-10-15T14:15:17Z","Tussock Cultro",1
"2021-10-15T15:20:05Z","Aleoida Coronamus",1
"2021-10-15T15:23:03Z","Cactoida Cortexum",1
"2021-10-15T15:25:49Z","Stratum Paleas",1
"2021-10-15T16:11:28Z","Osseus Spiralis",1
"2021-10-15T16:13:42Z","Tussock Cultro",1
"2021-10-16T15:23:04Z","Tussock Albata",1
"2021-10-16T17:04:49Z","Tussock Cultro",1
"2021-10-16T17:09:11Z","Osseus Spiralis",1
"2021-10-16T17:13:22Z","Stratum Tectonicas",1
"2021-10-16T17:34:21Z","Tussock Cultro",1
"2021-10-17T17:13:07Z","Tussock Cultro",1
"2021-10-17T17:16:06Z","Stratum Tectonicas",1
"2021-10-18T12:05:52Z","Cactoida Cortexum",1
"2021-10-18T18:33:44Z","Osseus Pumice",1
"2021-10-19T17:30:39Z","Fonticulua Campestris",1
"2021-10-19T18:15:24Z","Aleoida Coronamus",1
"2021-10-19T18:20:23Z","Frutexa Acus",1
"2021-10-19T18:33:10Z","Cactoida Cortexum",1
"2021-10-20T17:15:48Z","Fonticulua Campestris",1
"2021-10-21T11:32:06Z","Aleoida Coronamus",1
"2021-10-21T11:37:49Z","Tubus Compagibus",1
"2021-10-21T11:40:47Z","Stratum Paleas",1
"2021-11-19T17:19:57Z","Bacterium Cerbrus",1
"2021-11-22T17:48:33Z","Tussock Cultro",1
"2021-11-22T17:52:21Z","Bacterium Alcyoneum",1
"2021-11-22T18:02:32Z","Frutexa Metallicum",1
"2021-11-22T18:32:33Z","Fungoida Setisis",1
"2021-11-25T19:20:54Z","Tubus Compagibus",1
"2021-11-26T16:25:41Z","Tussock Ignis",1
"2021-11-26T16:32:05Z","Tubus Compagibus",1
"2021-11-26T16:35:59Z","Tussock Serrati",1
"2021-11-26T16:54:05Z","Tubus Sororibus",1
"2021-11-26T17:43:35Z","Frutexa Metallicum",1
"2021-11-26T18:09:44Z","Frutexa Acus",1
"2021-11-26T18:45:18Z","Frutexa Metallicum",1
"2021-11-26T19:53:23Z","Tussock Triticum",1
"2021-11-26T19:57:53Z","Clypeus Lacrimam",1
"2021-11-26T20:09:02Z","Cactoida Cortexum",1
"2021-11-27T16:59:16Z","Tubus Compagibus",1
"2021-11-27T17:04:17Z","Stratum Excutitus",1
"2021-11-27T17:06:54Z","Tussock Ignis",1
"2021-11-28T15:53:10Z","Bacterium Vesicula",1
"2021-11-28T16:25:42Z","Tussock Cultro",1
"2021-11-28T16:29:31Z","Stratum Tectonicas",1
"2021-11-28T17:09:51Z","Recepta Umbrux",1
"2021-11-28T17:14:43Z","Tussock Stigmasis",1
"2021-11-28T18:13:57Z","Tubus Compagibus",1
"2021-11-28T18:16:55Z","Tussock Ignis",1
"2021-11-28T18:55:49Z","Tussock Ignis",1
"2021-11-28T18:59:02Z","Tubus Compagibus",1
"2021-11-29T19:48:15Z","Fumerola Nitris",1
"2021-12-02T19:36:16Z","Tussock Ignis",1
"2021-12-02T19:41:19Z","Stratum Tectonicas",1
"2021-12-02T20:05:54Z","Tussock Cultro",1
"2021-12-03T16:05:10Z","Cactoida Lapis",1
"2021-12-03T16:09:24Z","Tussock Cultro",1
"2021-12-03T16:14:20Z","Stratum Tectonicas",1
"2022-01-13T18:46:43Z","Bacterium Cerbrus",1
"2022-01-19T18:53:59Z","Tussock Ignis",1
"2022-01-19T18:58:26Z","Tubus Compagibus",1
"2022-01-28T17:21:22Z","Tussock Capillum",1
"2022-01-28T17:26:16Z","Fonticulua Campestris",1
"2022-01-28T18:33:23Z","Bacterium Volu",1
"2022-01-30T12:14:55Z","Tussock Cultro",1
"2022-01-30T12:19:16Z","Osseus Spiralis",1
"2022-01-30T13:59:23Z","Aleoida Laminiae",1
"2022-01-30T14:05:24Z","Fungoida Setisis",1
"2022-01-30T14:11:30Z","Bacterium Alcyoneum",1
"2022-01-31T18:04:11Z","Tubus Sororibus",1
"2022-01-31T18:20:57Z","Fonticulua Campestris",1
"2022-01-31T18:23:41Z","Tussock Capillum",1
"2022-01-31T19:48:16Z","Tussock Ignis",1
"2022-01-31T19:50:56Z","Bacterium Aurasus",1
"2022-02-01T17:16:30Z","Stratum Laminamus",1
"2022-02-01T17:22:13Z","Tussock Cultro",1
"2022-02-01T19:09:12Z","Stratum Laminamus",1
"2022-02-01T19:12:35Z","Tussock Cultro",1
"2022-02-01T19:18:58Z","Osseus Spiralis",1
"2022-02-02T19:53:08Z","Concha Labiata",1
"2022-02-03T19:14:09Z","Stratum Tectonicas",1
"2022-02-03T19:16:40Z","Tussock Cultro",1
"2022-02-03T19:38:51Z","Tubus Sororibus",1
"2022-02-05T16:17:58Z","Tussock Ignis",1
"2022-02-05T16:23:36Z","Bacterium Aurasus",1
"2022-02-05T16:54:12Z","Concha Labiata",1
"2022-02-05T17:28:29Z","Bacterium Alcyoneum",1
"2022-02-05T17:30:43Z","Tussock Cultro",1
"2022-02-07T20:04:35Z","Fonticulua Campestris",1
"2022-02-07T20:07:12Z","Tussock Capillum",1
"2022-02-07T20:15:55Z","Bacterium Vesicula",1
"2022-02-08T18:06:34Z","Tussock Capillum",1
"2022-02-08T18:47:43Z","Fonticulua Campestris",1
"2022-02-08T18:51:30Z","Tussock Capillum",1
"2022-02-09T16:58:17Z","Concha Labiata",1
"2022-02-09T17:47:48Z","Frutexa Acus",1
"2022-02-09T18:33:15Z","Bacterium Informem",1
"2022-02-09T18:44:28Z","Tussock Caputus",1
"2022-02-09T19:07:30Z","Cactoida Pullulanta",1
"2022-02-09T19:12:51Z","Fungoida Gelata",1
"2022-02-09T19:15:03Z","Tussock Caputus",1
"2022-02-09T19:19:05Z","Concha Renibus",1
"2022-02-10T17:11:18Z","Fungoida Setisis",1
"2022-02-10T18:15:42Z","Fonticulua Campestris",1
"2022-02-10T19:17:00Z","Bacterium Cerbrus",1
"2022-02-10T19:19:22Z","Stratum Tectonicas",1
"2022-02-13T16:09:37Z","Tussock Divisa",1
"2022-02-13T16:16:09Z","Osseus Spiralis",1
"2022-02-13T17:47:21Z","Concha Labiata",1
"2022-02-13T18:45:47Z","Bacterium Informem",1
"2022-02-14T16:26:21Z","Stratum Tectonicas",1
"2022-02-14T16:28:44Z","Bacterium Cerbrus",1
"2022-02-14T18:07:19Z","Stratum Tectonicas",1
"2022-02-14T18:10:37Z","Bacterium Aurasus",1
"2022-02-14T19:10:03Z","Fonticulua Campestris",1
"2022-02-15T18:05:10Z","Tussock Divisa",1
"2022-02-15T18:07:14Z","Stratum Tectonicas",1
"2022-02-15T18:34:29Z","Bacterium Cerbrus",1
"2022-02-15T19:12:12Z","Stratum Tectonicas",1
"2022-02-16T18:47:17Z","Clypeus Margaritus",1
"2022-02-16T18:49:39Z","Cactoida Pullulanta",1
"2022-02-16T19:28:40Z","Bacterium Cerbrus",1
"2022-02-17T15:44:28Z","Bacterium Cerbrus",1
"2022-02-17T15:58:13Z","Tubus Conifer",1
"2022-02-17T16:45:53Z","Bacterium Cerbrus",1
"2022-02-17T16:48:20Z","Stratum Tectonicas",1
"2022-02-17T17:23:50Z","Frutexa Flabellum",1
"2022-02-17T17:52:42Z","Tubus Conifer",1
"2022-02-17T17:55:40Z","Stratum Paleas",1
"2022-02-17T17:59:17Z","Bacterium Aurasus",1
"2022-02-17T18:13:40Z","Fonticulua Lapida",1
"2022-02-17T18:27:54Z","Fonticulua Upupam",1
"2022-02-18T16:12:28Z","Bacterium Tela",1
"2022-02-18T16:50:45Z","Tubus Conifer",1
"2022-02-18T16:53:05Z","Tussock Ignis",1
"2022-02-18T16:56:01Z","Bacterium Aurasus",1
"2022-02-18T16:57:59Z","Stratum Paleas",1
"2022-02-18T17:26:12Z","Bacterium Cerbrus",1
"2022-02-18T17:50:03Z","Bacterium Cerbrus",1
"2022-02-18T17:52:19Z","Stratum Tectonicas",1
"2022-02-19T19:25:13Z","Bacterium Informem",1
"2022-02-20T14:28:12Z","Bacterium Acies",1
"2022-02-20T14:53:04Z","Aleoida Coronamus",1
"2022-02-20T14:55:30Z","Stratum Paleas",1
"2022-02-20T14:59:15Z","Cactoida Pullulanta",1
"2022-02-20T15:01:09Z","Bacterium Aurasus",1
"2022-02-21T18:25:36Z","Bacterium Cerbrus",1
"2022-02-21T19:09:50Z","Concha Aureolas",1
"2022-02-22T19:59:17Z","Fungoida Bullarum",1
"2022-02-23T18:33:54Z","Fonticulua Digitos",1
"2022-02-23T19:02:56Z","Bacterium Informem",1
"2022-02-23T19:35:15Z","Frutexa Metallicum",1
"2022-02-24T16:23:44Z","Bacterium Bullaris",1
"2022-02-24T16:45:33Z","Bacterium Cerbrus",1
"2022-02-24T17:18:07Z","Bacterium Vesicula",1
"2022-02-24T17:35:06Z","Fonticulua Digitos",1
"2022-02-24T17:51:02Z","Tussock Divisa",1
"2022-02-24T17:53:16Z","Stratum Paleas",1
"2022-02-24T17:58:43Z","Osseus Spiralis",1
"2022-02-24T18:35:42Z","Fonticulua Campestris",1
"2022-02-24T19:27:17Z","Bacterium Informem",1
"2022-02-24T19:52:45Z","Tubus Conifer",1
"2022-02-24T19:56:03Z","Stratum Paleas",1
"2022-02-24T19:59:15Z","Bacterium Aurasus",1
"2022-02-26T16:56:31Z","Aleoida Spica",1
"2022-02-26T17:00:08Z","Stratum Tectonicas",1
"2022-02-26T17:03:35Z","Osseus Spiralis",1
"2022-02-26T17:24:30Z","Bacterium Cerbrus",1
"2022-02-26T18:03:39Z","Clypeus Margaritus",1
"2022-02-26T18:10:52Z","Bacterium Cerbrus",1
"2022-02-26T18:15:04Z","Tussock Virgam",1
"2022-02-26T18:20:00Z","Cactoida Vermis",1
"2022-02-26T18:24:01Z","Stratum Tectonicas",1
"2022-02-26T19:45:55Z","Fonticulua Campestris",1
"2022-02-27T14:57:55Z","Bacterium Acies",1
"2022-02-27T16:15:29Z","Bacterium Vesicula",1
"2022-02-27T16:30:38Z","Fonticulua Digitos",1
"2022-02-27T16:42:21Z","Fonticulua Campestris",1
"2022-02-27T17:00:01Z","Tussock Capillum",1
"2022-02-27T17:57:13Z","Fonticulua Lapida",1
"2022-02-28T17:12:54Z","Bacterium Cerbrus",1
"2022-02-28T18:44:26Z","Bacterium Volu",1
"2022-02-28T20:13:36Z","Tubus Conifer",1
"2022-02-28T20:15:57Z","Tussock Ignis",1
"2022-03-01T18:28:10Z","Stratum Tectonicas",1
"2022-03-01T18:31:39Z","Tussock Divisa",1
"2022-03-02T20:08:02Z","Fonticulua Campestris",1
"2022-03-02T20:11:13Z","Bacterium Vesicula",1
"2022-03-04T17:40:30Z","Fonticulua Campestris",1
"2022-03-04T18:56:37Z","Tussock Serrati",1
"2022-03-04T18:58:51Z","Stratum Paleas",1
"2022-03-04T19:02:21Z","Bacterium Aurasus",1
"2022-03-04T20:05:31Z","Stratum Tectonicas",1
"2022-03-06T14:13:37Z","Tubus Rosarium",1
"2022-03-06T14:16:09Z","Aleoida Spica",1
"2022-03-06T14:18:37Z","Bacterium Alcyoneum",1
"2022-03-06T14:21:01Z","Tussock Divisa",1
"2022-03-06T14:23:17Z","Stratum Paleas",1
"2022-03-06T16:42:48Z","Frutexa Metallicum",1
"2022-03-06T17:03:28Z","Tussock Divisa",1
"2022-03-06T17:05:29Z","Bacterium Alcyoneum",1
"2022-03-06T17:07:47Z","Stratum Tectonicas",1
"2022-03-08T17:08:11Z","Tussock Capillum",1
"2022-03-09T17:46:13Z","Osseus Spiralis",1
"2022-03-09T17:49:08Z","Bacterium Alcyoneum",1
"2022-03-09T19:03:47Z","Bacterium Volu",1
"2022-03-09T19:36:10Z","Fungoida Gelata",1
"2022-03-09T19:38:45Z","Tussock Caputus",1
"2022-03-09T19:43:40Z","Concha Renibus",1
"2022-03-10T18:01:45Z","Osseus Pumice",1
"2022-03-10T18:58:13Z","Tubus Rosarium",1
"2022-03-10T19:02:27Z","Tussock Divisa",1
"2022-03-10T19:04:49Z","Osseus Spiralis",1
"2022-03-11T19:18:18Z","Bacterium Vesicula",1
"2022-03-11T19:30:12Z","Stratum Tectonicas",1
"2022-03-11T19:48:52Z","Fonticulua Campestris",1
"2022-03-12T18:33:06Z","Clypeus Margaritus",1
"2022-03-12T19:01:25Z","Bacterium Tela",1
"2022-03-12T20:01:11Z","Bacterium Acies",1
"2022-03-14T17:18:14Z","Fonticulua Campestris",1
"2022-03-14T17:20:20Z","Bacterium Vesicula",1
"2022-03-14T18:04:02Z","Tussock Divisa",1
"2022-03-14T18:07:03Z","Osseus Spiralis",1
"2022-03-14T18:09:56Z","Bacterium Alcyoneum",1
"2022-03-14T18:33:41Z","Tussock Ignis",1
"2022-03-14T18:35:45Z","Bacterium Aurasus",1
"2022-03-14T18:40:54Z","Stratum Paleas",1
"2022-03-14T19:01:08Z","Tubus Rosarium",1
"2022-03-14T19:04:51Z","Tussock Divisa",1
"2022-03-14T19:07:20Z","Stratum Paleas",1
"2022-03-14T19:35:58Z","Fumerola Carbosis",1
"2022-03-17T19:50:32Z","Aleoida Coronamus",1
"2022-03-17T19:53:57Z","Cactoida Pullulanta",1
"2022-03-18T17:25:32Z","Tussock Divisa",1
"2022-03-18T18:09:39Z","Frutexa Metallicum",1
"2022-03-18T20:02:44Z","Bacterium Bullaris",1
"2022-03-19T15:02:42Z","Osseus Spiralis",1
"2022-03-19T15:20:44Z","Tubus Conifer",1
"2022-03-19T15:22:51Z","Tussock Ignis",1
"2022-03-19T15:24:36Z","Bacterium Aurasus",1
"2022-03-21T19:02:15Z","Osseus Pumice",1
"2022-03-22T17:25:00Z","Osseus Pumice",1
"2022-03-22T18:13:33Z","Stratum Tectonicas",1
"2022-03-24T17:54:03Z","Fonticulua Campestris",1
"2022-03-24T18:59:03Z","Bacterium Cerbrus",1
"2022-03-24T19:12:49Z","Stratum Tectonicas",1
"2022-03-24T19:31:01Z","Bacterium Cerbrus",1
"2022-03-25T16:43:01Z","Bacterium Vesicula",1
"2022-03-25T17:04:13Z","Stratum Paleas",1
"2022-03-25T17:06:15Z","Bacterium Aurasus",1
"2022-03-25T18:48:18Z","Tussock Ignis",1
"2022-03-25T18:51:56Z","Bacterium Aurasus",1
"2022-03-26T18:00:25Z","Fungoida Setisis",1
"2022-03-26T18:05:45Z","Osseus Spiralis",1
"2022-03-26T18:07:40Z","Stratum Paleas",1
"2022-03-26T18:09:54Z","Bacterium Alcyoneum",1
"2022-03-26T19:05:49Z","Bacterium Bullaris",1
"2022-03-27T16:53:15Z","Bacterium Alcyoneum",1
"2022-03-27T17:41:38Z","Frutexa Metallicum",1
"2022-03-27T19:06:20Z","Tubus Compagibus",1
"2022-03-28T14:38:58Z","Tussock Ignis",1
"2022-03-28T14:41:02Z","Stratum Paleas",1
"2022-03-28T14:48:27Z","Bacterium Aurasus",1
"2022-03-28T15:37:58Z","Fonticulua Lapida",1
"2022-03-28T16:36:26Z","Fonticulua Upupam",1
"2022-03-28T17:36:12Z","Fonticulua Digitos",1
"2022-03-28T17:56:12Z","Bacterium Informem",1
"2022-03-29T17:21:16Z","Fungoida Setisis",1
"2022-03-30T16:24:32Z","Stratum Tectonicas",1
"2022-03-30T17:39:54Z","Osseus Pumice",1
"2022-03-30T17:42:48Z","Bacterium Vesicula",1
"2022-03-30T18:17:54Z","Aleoida Coronamus",1
"2022-03-30T19:24:18Z","Frutexa Flabellum",1
"2022-03-30T19:27:27Z","Aleoida Laminiae",1
"2022-03-31T16:16:40Z","Bacterium Bullaris",1
"2022-03-31T17:06:59Z","Stratum Araneamus",1
"2022-03-31T17:13:56Z","Bacterium Cerbrus",1
"2022-03-31T17:45:06Z","Stratum Paleas",1
"2022-03-31T17:48:10Z","Bacterium Aurasus",1
"2022-03-31T19:51:47Z","Fonticulua Campestris",1
"2022-04-01T17:21:09Z","Fonticulua Digitos",1
"2022-04-01T18:08:56Z","Fungoida Setisis",1
"2022-04-01T18:25:50Z","Aleoida Laminiae",1
"2022-04-01T18:27:50Z","Stratum Paleas",1
"2022-04-01T18:42:14Z","Osseus Spiralis",1
"2022-04-01T18:58:20Z","Bacterium Cerbrus",1
"2022-04-02T16:13:11Z","Fonticulua Upupam",1
"2022-04-02T16:32:53Z","Bacterium Aurasus",1
"2022-04-03T17:19:18Z","Fonticulua Lapida",1
"2022-04-03T17:52:42Z","Tussock Caputus",1
"2022-04-04T18:14:57Z","Tussock Capillum",1
"2022-04-05T16:35:02Z","Bacterium Bullaris",1
"2022-04-05T17:25:15Z","Bacterium Informem",1
"2022-04-05T17:40:03Z","Stratum Limaxus",1
"2022-04-05T17:43:52Z","Tussock Propagito",1
"2022-04-05T17:46:43Z","Bacterium Aurasus",1
"2022-04-05T18:39:30Z","Bacterium Cerbrus",1
"2022-04-06T16:26:53Z","Tussock Propagito",1
"2022-04-13T19:01:53Z","Bacterium Acies",1
"2022-04-14T15:35:45Z","Fonticulua Campestris",1
"2022-04-14T16:07:58Z","Fonticulua Campestris",1
"2022-04-14T16:54:45Z","Stratum Paleas",1
"2022-04-14T17:41:11Z","Bacterium Informem",1
"2022-04-14T18:14:07Z","Bacterium Aurasus",1
"2022-04-14T18:34:02Z","Bacterium Vesicula",1
"2022-04-14T19:10:37Z","Bacterium Vesicula",1
"2022-04-15T17:39:36Z","Fonticulua Digitos",1
"2022-04-15T18:00:32Z","Stratum Tectonicas",1
"2022-04-15T18:31:36Z","Stratum Limaxus",1
"2022-04-15T18:35:27Z","Bacterium Cerbrus",1
"2022-04-15T19:41:20Z","Frutexa Metallicum",1
"2022-04-17T16:57:06Z","Bacterium Bullaris",1
"2022-04-17T18:09:55Z","Fonticulua Upupam",1
"2022-04-18T15:24:07Z","Bacterium Alcyoneum",1
"2022-04-18T15:41:43Z","Osseus Pumice",1
"2022-04-18T16:58:14Z","Tussock Catena",1
"2022-04-18T17:04:20Z","Frutexa Metallicum",1
"2022-04-18T18:01:34Z","Fonticulua Lapida",1
"2022-04-19T17:52:10Z","Osseus Pumice",1
"2022-04-19T18:39:50Z","Tubus Rosarium",1
"2022-04-19T18:41:55Z","Stratum Paleas",1
"2022-04-19T18:45:02Z","Osseus Spiralis",1
"2022-04-20T17:04:24Z","Bacterium Vesicula",1
"2022-04-21T15:09:21Z","Fonticulua Campestris",1
"2022-04-21T15:54:17Z","Bacterium Bullaris",1
"2022-04-21T16:22:26Z","Stratum Tectonicas",1
"2022-04-21T16:36:46Z","Bacterium Cerbrus",1
"2022-04-21T17:15:19Z","Bacterium Bullaris",1
"2022-04-23T15:45:53Z","Bacterium Cerbrus",1
"2022-04-23T16:36:43Z","Bacterium Aurasus",1
"2022-04-23T17:01:49Z","Bacterium Informem",1
"2022-04-24T15:01:31Z","Bacterium Aurasus",1
"2022-04-24T15:52:08Z","Fonticulua Lapida",1
"2022-04-24T15:59:24Z","Bacterium Informem",1
"2022-04-25T17:34:37Z","Tussock Catena",1
"2022-04-25T18:53:51Z","Concha Labiata",1
"2022-04-28T17:57:46Z","Recepta Deltahedronix",1
"2022-04-28T18:02:26Z","Concha Labiata",1
"2022-04-28T18:11:05Z","Tubus Cavas",1
"2022-04-28T18:13:48Z","Stratum Paleas",1
"2022-04-28T18:16:05Z","Tussock Propagito",1
"2022-04-28T18:19:31Z","Bacterium Aurasus",1
"2022-04-29T16:39:05Z","Fonticulua Campestris",1
"2022-04-29T16:55:04Z","Bacterium Tela",1
"2022-04-29T17:14:21Z","Fonticulua Digitos",1
"2022-04-29T18:06:47Z","Bacterium Acies",1
"2022-04-29T18:29:14Z","Fonticulua Campestris",1
"2022-04-30T17:46:32Z","Bacterium Informem",1
"2022-04-30T18:42:55Z","Tussock Catena",1
"2022-04-30T18:46:30Z","Stratum Paleas",1
"2022-04-30T18:49:51Z","Osseus Spiralis",1
"2022-04-30T18:56:21Z","Bacterium Alcyoneum",1
"2022-04-30T19:11:20Z","Fungoida Setisis",1
"2022-05-02T17:21:38Z","Tubus Cavas",1
"2022-05-02T18:04:01Z","Bacterium Bullaris",1
"2022-05-02T19:04:17Z","Bacterium Cerbrus",1
"2022-05-03T16:16:30Z","Bacterium Tela",1
"2022-05-03T18:50:34Z","Crystalline Shards",1
"2022-05-04T18:02:15Z","Tubus Cavas",1
"2022-05-04T18:04:03Z","Tussock Propagito",1
"2022-05-04T18:06:24Z","Stratum Limaxus",1
"2022-05-04T18:08:53Z","Bacterium Aurasus",1
"2022-05-05T17:15:20Z","Bacterium Cerbrus",1
"2022-05-05T17:17:37Z","Stratum Tectonicas",1
"2022-05-05T19:48:39Z","Bacterium Informem",1
"2022-05-05T20:18:33Z","Stratum Tectonicas",1
"2022-05-05T20:30:02Z","Bacterium Cerbrus",1
"2022-05-05T20:46:43Z","Fonticulua Campestris",1
"2022-05-05T21:00:50Z","Bacterium Bullaris",1
"2022-05-06T16:20:48Z","Bacterium Vesicula",1
"2022-05-06T17:25:01Z","Crystalline Shards",1
"2022-05-06T17:50:27Z","Tubus Compagibus",1
"2022-05-06T17:52:50Z","Stratum Paleas",1
"2022-05-06T17:55:50Z","Tussock Albata",1
"2022-05-06T18:00:37Z","Bacterium Aurasus",1
"2022-05-06T18:38:37Z","Bacterium Bullaris",1
"2022-05-07T16:35:27Z","Stratum Tectonicas",1
"2022-05-07T16:38:54Z","Bacterium Aurasus",1
"2022-05-07T17:17:58Z","Osseus Pumice",1
"2022-05-07T19:18:05Z","Tussock Capillum",1
"2022-05-07T19:22:35Z","Fonticulua Campestris",1
"2022-06-19T18:02:16Z","Fonticulua Campestris",1
"2022-06-19T19:25:46Z","Osseus Pumice",1
"2022-07-05T18:38:29Z","Bacterium Vesicula",1
"2022-07-12T19:12:19Z","Clypeus Margaritus",1
"2022-07-14T18:43:20Z","Bacterium Informem",1
"2022-07-14T18:57:12Z","Tussock Pennatis",1
"2022-07-18T18:02:59Z","Tussock Pennatis",1
"2022-07-18T18:05:30Z","Bacterium Aurasus",1
"2022-07-18T18:55:38Z","Bacterium Cerbrus",1
"2022-07-19T16:55:04Z","Fonticulua Lapida",1
"2022-07-20T16:12:31Z","Concha Aureolas",1
"2022-07-20T17:49:35Z","Stratum Tectonicas",1
"2022-07-20T17:52:48Z","Bacterium Aurasus",1
"2022-07-20T18:10:18Z","Frutexa Flabellum",1
"2022-07-21T15:27:48Z","Bacterium Bullaris",1
"2022-07-21T15:41:03Z","Bacterium Vesicula",1
"2022-07-21T15:59:36Z","Bacterium Informem",1
"2022-07-21T16:01:22Z","Fonticulua Lapida",1
"2022-07-21T16:26:07Z","Fonticulua Campestris",1
"2022-07-21T16:29:52Z","Bacterium Vesicula",1
"2022-07-21T17:30:02Z","Tussock Cultro",1
"2022-07-21T17:32:42Z","Bacterium Alcyoneum",1
"2022-07-21T18:04:37Z","Bacterium Bullaris",1
"2022-07-23T15:56:04Z","Fonticulua Upupam",1
"2022-07-23T16:37:39Z","Tussock Cultro",1
"2022-07-23T16:39:32Z","Stratum Tectonicas",1
"2022-07-23T16:43:08Z","Bacterium Alcyoneum",1
"2022-07-23T17:15:11Z","Tubus Sororibus",1
"2022-07-23T17:35:47Z","Osseus Pumice",1
"2022-07-24T17:11:08Z","Bacterium Informem",1
"2022-07-24T18:05:58Z","Stratum Tectonicas",1
"2022-07-27T11:41:32Z","Bacterium Alcyoneum",1
"2022-07-27T12:02:17Z","Clypeus Lacrimam",1
"2022-07-27T12:06:16Z","Stratum Paleas",1
"2022-07-27T12:12:17Z","Tubus Conifer",1
"2022-07-27T12:24:24Z","Bacterium Aurasus",1
"2022-07-27T14:59:41Z","Frutexa Acus",1
"2022-07-27T18:38:02Z","Stratum Tectonicas",1
"2022-07-27T18:43:00Z","Bacterium Cerbrus",1
"2022-07-27T19:04:24Z","Frutexa Acus",1
"2022-07-28T14:00:22Z","Bacterium Aurasus",1
"2022-07-30T14:19:07Z","Bacterium Alcyoneum",1
"2022-07-30T15:15:27Z","Bacterium Cerbrus",1
"2022-07-31T15:15:20Z","Bacterium Cerbrus",1
"2022-07-31T16:25:35Z","Stratum Tectonicas",1
"2022-07-31T16:28:02Z","Bacterium Alcyoneum",1
"2022-08-03T18:40:50Z","Stratum Tectonicas",1
"2022-08-03T18:44:26Z","Bacterium Alcyoneum",1
"2022-08-04T12:56:54Z","Aleoida Coronamus",1
"2022-08-04T12:59:59Z","Frutexa Fera",1
"2022-08-04T13:03:13Z","Bacterium Aurasus",1
"2022-08-04T13:08:28Z","Stratum Paleas",1
"2022-08-04T13:13:01Z","Tussock Pennatis",1
"2022-08-04T13:59:40Z","Frutexa Flabellum",1
"2022-08-04T14:36:16Z","Fungoida Gelata",1
"2022-08-04T14:48:03Z","Concha Renibus",1
"2022-08-04T15:16:32Z","Bacterium Vesicula",1
"2022-08-04T15:26:15Z","Stratum Tectonicas",1
"2022-08-04T15:29:01Z","Bacterium Cerbrus",1
"2022-08-04T16:19:56Z","Concha Labiata",1
"2022-08-04T17:02:54Z","Fonticulua Campestris",1
"2022-08-04T17:29:40Z","Bacterium Acies",1
"2022-08-05T14:00:36Z","Stratum Tectonicas",1
"2022-08-05T14:03:06Z","Bacterium Cerbrus",1
"2022-08-05T14:24:03Z","Stratum Tectonicas",1
"2022-08-05T14:44:02Z","Fonticulua Lapida",1
"2022-08-05T15:01:03Z","Bacterium Informem",1
"2022-08-05T15:25:54Z","Bacterium Cerbrus",1
"2022-08-05T15:38:46Z","Tussock Pennatis",1
"2022-08-05T15:47:43Z","Bacterium Aurasus",1
"2022-08-05T15:49:38Z","Stratum Tectonicas",1
"2022-08-05T16:07:29Z","Bacterium Bullaris",1
"2022-08-05T16:26:44Z","Osseus Spiralis",1
"2022-08-05T16:34:41Z","Bacterium Alcyoneum",1
"2022-08-05T16:51:14Z","Stratum Tectonicas",1
"2022-08-05T16:53:55Z","Bacterium Aurasus",1
"2022-08-06T13:31:33Z","Clypeus Margaritus",1
"2022-08-06T13:42:28Z","Tussock Virgam",1
"2022-08-06T13:47:43Z","Cactoida Vermis",1
"2022-08-06T13:49:46Z","Bacterium Cerbrus",1
"2022-08-06T14:25:22Z","Fonticulua Digitos",1
"2022-08-06T14:29:51Z","Bacterium Bullaris",1
"2022-08-06T14:52:16Z","Bacterium Vesicula",1
"2022-08-06T15:04:30Z","Tussock Pennatis",1
"2022-08-06T15:07:08Z","Stratum Tectonicas",1
"2022-08-06T15:10:58Z","Bacterium Aurasus",1
"2022-08-06T15:31:02Z","Fonticulua Campestris",1
"2022-08-06T15:33:10Z","Tussock Capillum",1
"2022-08-06T15:36:48Z","Bacterium Vesicula",1
"2022-08-08T14:53:20Z","Bacterium Aurasus",1
"2022-08-08T15:43:37Z","Frutexa Fera",1
"2022-08-08T15:54:44Z","Stratum Paleas",1
"2022-08-08T16:02:50Z","Tussock Pennatis",1
"2022-08-08T16:45:23Z","Stratum Paleas",1
"2022-08-08T16:47:42Z","Tussock Pennatis",1
"2022-08-08T16:51:20Z","Bacterium Aurasus",1
"2022-08-17T16:43:22Z","Tubus Rosarium",1
"2022-08-17T16:46:03Z","Aleoida Spica",1
"2022-08-17T16:48:41Z","Stratum Paleas",1
"2022-08-17T16:51:35Z","Bacterium Alcyoneum",1
"2022-08-20T15:37:02Z","Electricae Radialem",1
"2022-08-20T15:39:11Z","Fonticulua Campestris",1
"2022-08-20T15:42:48Z","Bacterium Vesicula",1
"2022-08-20T17:10:37Z","Frutexa Fera",1
"2022-08-20T17:14:40Z","Aleoida Arcus",1
"2022-08-20T17:32:15Z","Stratum Paleas",1
"2022-08-20T17:34:46Z","Bacterium Aurasus",1
"2022-08-20T17:37:08Z","Tussock Pennatis",1
"2022-08-20T18:22:08Z","Frutexa Fera",1
"2022-08-20T18:27:54Z","Stratum Paleas",1
"2022-08-20T18:29:50Z","Tussock Pennatis",1
"2022-08-20T18:33:45Z","Bacterium Aurasus",1
"2022-08-20T18:56:16Z","Frutexa Flabellum",1
"2022-08-21T16:14:14Z","Osseus Spiralis",1
"2022-08-21T16:23:07Z","Frutexa Flabellum",1
"2022-08-21T16:34:33Z","Fungoida Setisis",1
"2022-08-21T17:16:25Z","Fonticulua Campestris",1
"2022-08-25T11:23:56Z","Bacterium Scopulum",1
"2022-08-25T12:58:11Z","Aleoida Spica",1
"2022-08-25T13:00:07Z","Stratum Tectonicas",1
"2022-08-25T13:03:30Z","Bacterium Alcyoneum",1
"2022-08-25T13:20:10Z","Bacterium Acies",1
"2022-08-25T14:21:32Z","Electricae Radialem",1
"2022-08-25T14:24:05Z","Fonticulua Campestris",1
"2022-08-25T14:33:40Z","Bacterium Vesicula",1
"2022-08-25T15:37:46Z","Aleoida Coronamus",1
"2022-08-25T15:40:31Z","Frutexa Fera",1
"2022-08-25T16:02:45Z","Fonticulua Campestris",1
"2022-08-25T16:07:24Z","Bacterium Vesicula",1
"2022-08-25T16:41:02Z","Tubus Rosarium",1
"2022-08-25T16:44:32Z","Osseus Spiralis",1
"2022-08-26T17:40:05Z","Bacterium Bullaris",1
"2022-08-28T14:56:55Z","Fonticulua Lapida",1
"2022-08-28T14:59:37Z","Bacterium Informem",1
"2022-08-28T15:31:51Z","Stratum Tectonicas",1
"2022-08-28T15:34:42Z","Bacterium Alcyoneum",1
"2022-08-28T15:48:11Z","Tussock Pennatis",1
"2022-08-28T15:50:54Z","Stratum Paleas",1
"2022-08-28T15:53:55Z","Bacterium Aurasus",1
"2022-08-28T16:30:32Z","Frutexa Fera",1
"2022-08-28T17:40:49Z","Fonticulua Digitos",1
"2022-08-29T17:02:13Z","Bacterium Tela",1
"2022-08-29T17:17:00Z","Frutexa Fera",1
"2022-08-29T17:34:55Z","Bacterium Tela",1
"2022-08-31T16:43:09Z","Stratum Paleas",1
"2022-08-31T16:46:28Z","Osseus Spiralis",1
"2022-08-31T16:49:39Z","Bacterium Alcyoneum",1
"2022-08-31T17:26:44Z","Fonticulua Digitos",1
"2022-08-31T17:31:40Z","Bacterium Bullaris",1
"2022-08-31T17:43:02Z","Tussock Pennatis",1
"2022-08-31T17:45:05Z","Aleoida Coronamus",1
"2022-08-31T17:48:41Z","Stratum Paleas",1
"2022-08-31T17:55:34Z","Concha Renibus",1
"2022-08-31T18:02:57Z","Frutexa Fera",1
"2022-08-31T18:11:29Z","Tubus Rosarium",1
"2022-08-31T18:24:19Z","Frutexa Flabellum",1
"2022-09-03T18:38:07Z","Bacterium Aurasus",1
"2022-09-03T19:01:47Z","Fonticulua Campestris",1
"2022-09-03T19:27:05Z","Bacterium Aurasus",1
"2022-09-03T19:31:31Z","Tussock Pennatis",1
"2022-09-03T19:35:18Z","Tubus Cavas",1
"2022-09-04T15:52:12Z","Bacterium Informem",1
"2022-09-04T16:29:48Z","Tubus Cavas",1
"2022-09-04T16:32:15Z","Tussock Pennatis",1
"2022-09-04T16:36:36Z","Stratum Excutitus",1
"2022-09-04T16:38:34Z","Bacterium Aurasus",1
"2022-09-04T17:08:55Z","Bacterium Vesicula",1
"2022-09-04T17:25:13Z","Tubus Rosarium",1
"2022-09-04T17:27:54Z","Tussock Cultro",1
"2022-09-04T17:30:34Z","Osseus Spiralis",1
"2022-09-04T17:33:23Z","Bacterium Alcyoneum",1
"2022-09-04T17:48:29Z","Frutexa Flammasis",1
"2022-09-04T18:03:09Z","Fungoida Setisis",1
"2022-09-05T11:11:35Z","Frutexa Fera",1
"2022-09-05T11:18:45Z","Concha Labiata",1
"2022-09-05T11:51:40Z","Concha Renibus",1
"2022-09-05T11:57:11Z","Cactoida Cortexum",1
"2022-09-05T12:03:17Z","Fungoida Gelata",1
"2022-09-05T12:22:17Z","Frutexa Acus",1
"2022-09-05T12:36:56Z","Aleoida Coronamus",1
"2022-09-05T12:39:56Z","Tussock Pennatis",1
"2022-09-05T12:43:28Z","Stratum Paleas",1
"2022-09-05T12:46:32Z","Bacterium Aurasus",1
"2022-09-05T12:56:14Z","Bacterium Cerbrus",1
"2022-09-05T12:58:40Z","Stratum Tectonicas",1
"2022-09-05T13:36:20Z","Stratum Tectonicas",1
"2022-09-06T16:43:33Z","Fonticulua Digitos",1
"2022-09-09T18:44:11Z","Aleoida Coronamus",1
"2022-09-09T18:46:29Z","Frutexa Acus",1
"2022-09-09T18:50:18Z","Cactoida Pullulanta",1
"2022-09-09T18:53:03Z","Tussock Pennatis",1
"2022-09-09T18:55:09Z","Stratum Excutitus",1
"2022-09-09T18:57:02Z","Bacterium Aurasus",1
"2022-09-09T19:07:10Z","Frutexa Acus",1
"2022-09-09T19:13:07Z","Fungoida Stabitis",1
"2022-09-09T19:19:18Z","Cactoida Pullulanta",1
"2022-09-09T19:21:52Z","Stratum Paleas",1
"2022-09-09T19:25:49Z","Tussock Propagito",1
"2022-09-09T19:33:20Z","Bacterium Aurasus",1
"2022-09-11T16:11:26Z","Bacterium Acies",1
"2022-09-11T16:33:35Z","Bacterium Bullaris",1
"2022-09-11T17:11:42Z","Bacterium Bullaris",1
"2022-09-11T17:14:36Z","Osseus Pumice",1
"2022-09-12T12:50:23Z","Bacterium Alcyoneum",1
"2022-09-12T12:59:19Z","Tussock Cultro",1
"2022-09-12T13:29:01Z","Frutexa Fera",1
"2022-09-12T13:45:29Z","Osseus Spiralis",1
"2022-09-12T13:58:44Z","Stratum Tectonicas",1
"2022-09-12T14:02:45Z","Bacterium Cerbrus",1
"2022-09-12T15:57:02Z","Stratum Cucumisis",1
"2022-09-12T16:48:28Z","Tussock Propagito",1
"2022-09-12T16:56:18Z","Concha Labiata",1
"2022-09-12T17:32:26Z","Tubus Compagibus",1
"2022-09-12T17:37:05Z","Tussock Pennatis",1
"2022-09-12T17:39:48Z","Aleoida Coronamus",1
"2022-09-12T17:42:39Z","Bacterium Aurasus",1
"2022-09-12T17:45:41Z","Cactoida Cortexum",1
"2022-09-12T17:53:28Z","Frutexa Acus",1
"2022-09-15T14:45:00Z","Cactoida Peperatis",1
"2022-09-15T15:00:25Z","Frutexa Flammasis",1
"2022-09-15T15:24:59Z","Tussock Catena",1
"2022-09-15T15:27:29Z","Osseus Spiralis",1
"2022-09-15T16:02:43Z","Tussock Catena",1
"2022-09-15T16:24:28Z","Stratum Tectonicas",1
"2022-09-15T16:26:58Z","Bacterium Alcyoneum",1
"2022-09-15T16:56:22Z","Stratum Cucumisis",1
"2022-09-15T17:13:26Z","Fonticulua Campestris",1
"2022-09-15T17:37:31Z","Aleoida Coronamus",1
"2022-09-15T17:39:30Z","Tubus Compagibus",1
"2022-09-15T17:41:35Z","Stratum Limaxus",1
"2022-09-15T17:44:30Z","Bacterium Aurasus",1
"2022-09-15T17:48:21Z","Tussock Propagito",1
"2022-09-15T18:10:36Z","Fonticulua Campestris",1
"2022-09-15T18:34:36Z","Frutexa Flammasis",1
"2022-09-15T18:42:24Z","Osseus Spiralis",1
"2022-09-15T18:48:14Z","Tussock Catena",1
"2022-09-15T18:52:39Z","Fungoida Setisis",1
"2022-09-16T16:21:29Z","Fonticulua Lapida",1
"2022-09-16T16:23:35Z","Bacterium Informem",1
"2022-09-16T16:35:10Z","Osseus Pumice",1
"2022-09-16T17:08:15Z","Tussock Catena",1
"2022-09-16T17:18:00Z","Fungoida Setisis",1
"2022-09-16T17:28:16Z","Frutexa Flammasis",1
"2022-09-18T15:57:54Z","Frutexa Flammasis",1
"2022-09-18T16:06:01Z","Cactoida Lapis",1
"2022-09-18T16:12:40Z","Bacterium Alcyoneum",1
"2022-09-18T16:15:43Z","Osseus Spiralis",1
"2022-09-18T16:41:32Z","Bacterium Aurasus",1
"2022-09-18T16:43:31Z","Aleoida Arcus",1
"2022-09-18T17:21:55Z","Stratum Cucumisis",1
"2022-09-18T17:23:47Z","Bacterium Cerbrus",1
"2022-09-20T17:11:56Z","Fonticulua Digitos",1
"2022-09-20T17:29:40Z","Stratum Cucumisis",1
"2022-09-20T17:32:01Z","Bacterium Cerbrus",1
"2022-09-20T18:31:51Z","Cactoida Lapis",1
"2022-09-20T18:34:31Z","Aleoida Laminiae",1
"2022-09-20T18:39:26Z","Bacterium Alcyoneum",1
"2022-09-21T17:04:07Z","Bacterium Informem",1
"2022-09-21T17:36:07Z","Fonticulua Digitos",1
"2022-09-22T14:30:36Z","Stratum Excutitus",1
"2022-09-22T14:42:57Z","Tubus Compagibus",1
"2022-09-22T14:47:12Z","Bacterium Aurasus",1
"2022-09-22T14:54:52Z","Tubus Compagibus",1
"2022-09-22T14:58:10Z","Tussock Ignis",1
"2022-09-22T15:02:01Z","Bacterium Aurasus",1
"2022-09-22T15:10:13Z","Tubus Compagibus",1
"2022-09-22T15:14:00Z","Bacterium Aurasus",1
"2022-09-22T15:16:36Z","Tussock Ignis",1
"2022-09-22T16:23:20Z","Frutexa Flabellum",1
"2022-09-22T16:31:44Z","Tubus Rosarium",1
"2022-09-22T16:34:26Z","Osseus Spiralis",1
"2022-09-22T16:38:40Z","Tussock Cultro",1
"2022-09-22T16:42:05Z","Bacterium Alcyoneum",1
"2022-09-22T17:08:22Z","Frutexa Flabellum",1
"2022-09-22T17:12:10Z","Fungoida Setisis",1
"2022-09-22T17:19:27Z","Bacterium Alcyoneum",1
"2022-09-22T17:22:24Z","Tussock Cultro",1
"2022-09-22T17:38:37Z","Fonticulua Digitos",1
"2022-09-22T17:48:33Z","Fonticulua Digitos",1
"2022-09-22T18:27:34Z","Frutexa Acus",1
"2022-09-22T18:33:18Z","Tussock Serrati",1
"2022-09-22T18:58:12Z","Fonticulua Digitos",1
"2022-09-23T16:45:23Z","Fonticulua Digitos",1
"2022-09-23T16:56:43Z","Fonticulua Campestris",1
"2022-09-23T17:06:33Z","Fonticulua Campestris",1
"2022-09-23T17:09:40Z","Bacterium Vesicula",1
"2022-09-23T17:39:08Z","Tussock Serrati",1
"2022-09-23T17:41:36Z","Stratum Tectonicas",1
"2022-09-23T17:47:04Z","Bacterium Aurasus",1
"2022-09-23T17:59:12Z","Tussock Ventusa",1
"2022-09-23T18:02:09Z","Bacterium Aurasus",1
"2022-09-23T18:36:47Z","Bacterium Aurasus",1
"2022-09-23T18:38:44Z","Stratum Tectonicas",1
"2022-09-23T18:55:51Z","Fonticulua Campestris",1
"2022-09-23T19:16:50Z","Bacterium Cerbrus",1
"2022-09-23T19:18:50Z","Stratum Tectonicas",1
"2022-09-23T19:29:04Z","Stratum Tectonicas",1
"2022-09-23T19:32:05Z","Tussock Cultro",1
"2022-09-23T19:38:17Z","Bacterium Alcyoneum",1
"2022-09-25T16:01:36Z","Stratum Excutitus",1
"2022-09-25T16:03:22Z","Tussock Albata",1
"2022-09-25T16:05:43Z","Bacterium Aurasus",1
"2022-09-25T16:22:39Z","Fonticulua Campestris",1
"2022-09-25T16:25:01Z","Bacterium Vesicula",1
"2022-09-25T16:32:00Z","Fonticulua Campestris",1
"2022-09-25T16:39:06Z","Fonticulua Campestris",1
"2022-09-25T16:42:23Z","Bacterium Vesicula",1
"2022-09-25T16:49:24Z","Fonticulua Campestris",1
"2022-09-25T16:52:04Z","Bacterium Vesicula",1
"2022-09-25T17:22:35Z","Stratum Tectonicas",1
"2022-09-25T17:25:11Z","Bacterium Aurasus",1
"2022-09-25T17:27:43Z","Tussock Albata",1
"2022-10-03T16:05:23Z","Fonticulua Campestris",1
"2022-10-03T17:00:01Z","Fonticulua Campestris",1
"2022-10-06T15:48:57Z","Fonticulua Campestris",1
"2022-10-06T15:52:24Z","Bacterium Vesicula",1
"2022-10-06T16:30:50Z","Bacterium Acies",1
"2022-10-06T16:53:43Z","Tussock Cultro",1
"2022-10-06T16:56:29Z","Osseus Spiralis",1
"2022-10-24T14:39:40Z","Bacterium Cerbrus",1
"2022-10-26T16:37:49Z","Fonticulua Campestris",1
"2022-10-26T16:53:54Z","Fonticulua Digitos",1
"2022-10-26T17:08:17Z","Bacterium Informem",1
"2022-10-26T17:38:05Z","Bacterium Cerbrus",1
"2022-10-28T14:56:41Z","Fonticulua Campestris",1
"2022-10-28T15:09:28Z","Bacterium Aurasus",1
"2022-10-28T15:12:22Z","Tubus Compagibus",1
"2022-10-28T15:17:32Z","Tussock Ignis",1
"2022-10-28T15:31:20Z","Stratum Tectonicas",1
"2022-10-28T15:33:07Z","Tussock Cultro",1
"2022-10-28T15:37:01Z","Bacterium Alcyoneum",1
"2022-10-28T15:53:14Z","Recepta Umbrux",1
"2022-10-28T16:12:26Z","Bacterium Acies",1
"2022-11-03T18:56:03Z","Bacterium Informem",1
"2022-11-03T19:17:21Z","Fonticulua Digitos",1
"2022-11-03T19:45:51Z","Stratum Tectonicas",1
"2022-11-03T19:49:58Z","Bacterium Aurasus",1
"2022-11-04T17:50:52Z","Cactoida Cortexum",1
"2022-11-04T17:53:51Z","Bacterium Aurasus",1
"2022-11-04T18:10:18Z","Fungoida Stabitis",1
"2022-11-05T18:44:52Z","Fonticulua Campestris",1
"2022-11-05T19:01:42Z","Bacterium Verrata",1
"2022-11-05T19:20:27Z","Fonticulua Lapida",1
"2022-11-05T19:24:00Z","Bacterium Informem",1
"2022-11-06T17:07:47Z","Stratum Tectonicas",1
"2022-11-06T17:14:58Z","Bacterium Alcyoneum",1
"2022-11-06T17:28:05Z","Tubus Compagibus",1
"2022-11-06T17:30:06Z","Stratum Paleas",1
"2022-11-06T17:32:57Z","Cactoida Cortexum",1
"2022-11-06T17:35:20Z","Bacterium Aurasus",1
"2022-11-11T16:49:40Z","Fonticulua Campestris",1
"2022-11-11T17:00:14Z","Fonticulua Digitos",1
"2022-11-11T17:28:56Z","Stratum Tectonicas",1
"2022-11-11T17:32:28Z","Bacterium Alcyoneum",1
"2022-11-11T17:50:43Z","Frutexa Acus",1
"2022-11-11T17:54:06Z","Tussock Pennata",1
"2022-11-11T18:11:00Z","Stratum Tectonicas",1
"2022-11-11T18:13:16Z","Bacterium Cerbrus",1
"2022-11-11T19:05:01Z","Fonticulua Campestris",1
"2022-11-12T18:24:04Z","Fonticulua Campestris",1
"2022-11-12T18:44:50Z","Fonticulua Campestris",1
"2022-11-12T18:49:24Z","Bacterium Vesicula",1
"2022-11-13T13:05:00Z","Frutexa Acus",1
"2022-11-13T13:08:14Z","Bacterium Aurasus",1
"2022-11-13T13:20:27Z","Bacterium Aurasus",1
"2023-01-07T17:37:44Z","Bacterium Alcyoneum",1
"2023-01-07T17:41:03Z","Tussock Cultro",1
"2023-01-07T17:43:39Z","Osseus Spiralis",1
"2023-01-08T15:20:11Z","Bacterium Vesicula",1
"2023-01-08T15:31:50Z","Bacterium Cerbrus",1
"2023-01-12T18:35:08Z","Fonticulua Upupam",1
"2023-01-12T18:45:55Z","Stratum Paleas",1
"2023-01-12T18:47:59Z","Tussock Serrati",1
"2023-01-12T18:50:38Z","Bacterium Aurasus",1
"2023-01-12T19:03:54Z","Bacterium Cerbrus",1
"2023-01-12T19:05:51Z","Stratum Tectonicas",1
"2023-01-12T19:22:47Z","Bacterium Acies",1
"2023-01-13T19:12:55Z","Bacterium Acies",1
"2023-01-13T19:37:18Z","Bacterium Acies",1
"2023-01-14T15:53:01Z","Bacterium Acies",1
"2023-01-14T16:08:54Z","Bacterium Acies",1
"2023-01-14T16:32:56Z","Bacterium Acies",1
"2023-01-14T16:53:42Z","Bacterium Vesicula",1
"2023-01-14T17:37:30Z","Bacterium Acies",1
"2023-01-14T17:55:58Z","Bacterium Aurasus",1
"2023-01-14T17:58:38Z","Tussock Ignis",1
"2023-01-14T18:16:05Z","Stratum Tectonicas",1
"2023-01-14T18:19:03Z","Bacterium Alcyoneum",1
"2023-01-14T18:28:43Z","Bacterium Vesicula",1
"2023-01-14T18:46:20Z","Fonticulua Campestris",1
"2023-01-14T18:49:38Z","Bacterium Vesicula",1
"2023-01-15T16:19:04Z","Bacterium Vesicula",1
"2023-01-15T16:41:50Z","Fonticulua Campestris",1
"2023-01-15T16:58:44Z","Tussock Ventusa",1
"2023-01-15T17:01:25Z","Bacterium Aurasus",1
